马来西亚,#genre#
TV 1,http://mxu03.wanicelife.com:8880/live/29us020301/asdfr2333/1734.ts
TV 2,http://mxu03.wanicelife.com:8880/live/29us020301/asdfr2333/1733.ts
TV 3,http://mxu03.wanicelife.com:8880/live/29us020301/asdfr2333/1732.ts
NTV 7,http://mxu03.wanicelife.com:8880/live/29us020301/asdfr2333/1731.ts
TV 8,http://mxu03.wanicelife.com:8880/live/29us020301/asdfr2333/1730.ts
TV 9,http://mxu03.wanicelife.com:8880/live/29us020301/asdfr2333/1729.ts
QUAN JIA,http://mxu03.wanicelife.com:8880/live/29us020301/asdfr2333/1728.ts
SHUANG XING,http://mxu03.wanicelife.com:8880/live/29us020301/asdfr2333/1727.ts
Wah Lai Toi,http://mxu03.wanicelife.com:8880/live/29us020301/asdfr2333/1726.ts
HUA HEE DAI,http://mxu03.wanicelife.com:8880/live/29us020301/asdfr2333/1725.ts
AOD,http://mxu03.wanicelife.com:8880/live/29us020301/asdfr2333/1724.ts
AEC,http://mxu03.wanicelife.com:8880/live/29us020301/asdfr2333/1723.ts
Super Sport 1,http://mxu03.wanicelife.com:8880/live/29us020301/asdfr2333/1722.ts
Super Sport 2,http://mxu03.wanicelife.com:8880/live/29us020301/asdfr2333/1721.ts
Super Sport 3,http://mxu03.wanicelife.com:8880/live/29us020301/asdfr2333/1720.ts
Super Sport 4,http://mxu03.wanicelife.com:8880/live/29us020301/asdfr2333/1719.ts
CELESTIAL,http://mxu03.wanicelife.com:8880/live/29us020301/asdfr2333/1718.ts
BERNAMA,http://mxu03.wanicelife.com:8880/live/29us020301/asdfr2333/1717.ts
Star Chinese Channel,http://mxu03.wanicelife.com:8880/live/29us020301/asdfr2333/1715.ts
XIAO TAI YANG,http://mxu03.wanicelife.com:8880/live/29us020301/asdfr2333/1714.ts
SCM Legend,http://mxu03.wanicelife.com:8880/live/29us020301/asdfr2333/1713.ts
TVB CLASSIC,http://mxu03.wanicelife.com:8880/live/29us020301/asdfr2333/1712.ts
WARNA,http://mxu03.wanicelife.com:8880/live/29us020301/asdfr2333/1706.ts
RIA,http://mxu03.wanicelife.com:8880/live/29us020301/asdfr2333/1705.ts
AWANI,http://mxu03.wanicelife.com:8880/live/29us020301/asdfr2333/1704.ts
OASIS,http://mxu03.wanicelife.com:8880/live/29us020301/asdfr2333/1701.ts
Suria,http://mxu03.wanicelife.com:8880/live/29us020301/asdfr2333/1700.ts
WWE,http://mxu03.wanicelife.com:8880/live/29us020301/asdfr2333/1698.ts
BOO,http://mxu03.wanicelife.com:8880/live/29us020301/asdfr2333/1697.ts
ASTRO ASSP4 HD,http://mxu03.wanicelife.com:8880/live/29us020301/asdfr2333/59217.ts
ASTRO ASSP3 HD,http://mxu03.wanicelife.com:8880/live/29us020301/asdfr2333/59218.ts
ASTRO ASSP HD,http://mxu03.wanicelife.com:8880/live/29us020301/asdfr2333/59220.ts
ASTRO ASSP2 HD,http://mxu03.wanicelife.com:8880/live/29us020301/asdfr2333/59219.ts
ASTRO Prima HD,http://mxu03.wanicelife.com:8880/live/29us020301/asdfr2333/71020.ts
ASTRO OASIS HD,http://mxu03.wanicelife.com:8880/live/29us020301/asdfr2333/71021.ts
Phoenix Info News,http://mxu03.wanicelife.com:8880/live/29us020301/asdfr2333/71023.ts
TV ALHIJRAH,http://mxu03.wanicelife.com:8880/live/29us020301/asdfr2333/71024.ts
ASTRO GO Shop Rumma,http://mxu03.wanicelife.com:8880/live/29us020301/asdfr2333/71025.ts
ASTRO GO Shop Gaaya,http://mxu03.wanicelife.com:8880/live/29us020301/asdfr2333/71026.ts
ASTRO Vaanavil,http://mxu03.wanicelife.com:8880/live/29us020301/asdfr2333/71027.ts
GO SHOP,http://mxu03.wanicelife.com:8880/live/29us020301/asdfr2333/71028.ts
Sun Music,http://mxu03.wanicelife.com:8880/live/29us020301/asdfr2333/71029.ts
CHUTTI TV,http://mxu03.wanicelife.com:8880/live/29us020301/asdfr2333/71030.ts
ASTRO Adithya,http://mxu03.wanicelife.com:8880/live/29us020301/asdfr2333/71031.ts
ASTRO Zee Tamil,http://mxu03.wanicelife.com:8880/live/29us020301/asdfr2333/71032.ts
ASTRO Vinmeen,http://mxu03.wanicelife.com:8880/live/29us020301/asdfr2333/71033.ts
ASTRO Star Vijay,http://mxu03.wanicelife.com:8880/live/29us020301/asdfr2333/71034.ts
ASTRO Colors Tamil,http://mxu03.wanicelife.com:8880/live/29us020301/asdfr2333/71035.ts
SUN TV HD,http://mxu03.wanicelife.com:8880/live/29us020301/asdfr2333/71036.ts
BollyOne HD,http://mxu03.wanicelife.com:8880/live/29us020301/asdfr2333/71037.ts
iQIYI HD,http://mxu03.wanicelife.com:8880/live/29us020301/asdfr2333/71038.ts
GO SHOP 2,http://mxu03.wanicelife.com:8880/live/29us020301/asdfr2333/71039.ts
TVB JADE,http://mxu03.wanicelife.com:8880/live/29us020301/asdfr2333/71040.ts
CTI Asia,http://mxu03.wanicelife.com:8880/live/29us020301/asdfr2333/71042.ts
TVB E-NEWS,http://mxu03.wanicelife.com:8880/live/29us020301/asdfr2333/71043.ts
TVB XING HE HD,http://mxu03.wanicelife.com:8880/live/29us020301/asdfr2333/71044.ts
TVBS ASIA HD,http://mxu03.wanicelife.com:8880/live/29us020301/asdfr2333/71045.ts
CCM,http://mxu03.wanicelife.com:8880/live/29us020301/asdfr2333/71046.ts
CCTV4 HD,http://mxu03.wanicelife.com:8880/live/29us020301/asdfr2333/71047.ts
AOD 352 HD,http://mxu03.wanicelife.com:8880/live/29us020301/asdfr2333/71048.ts
AOD 353 HD,http://mxu03.wanicelife.com:8880/live/29us020301/asdfr2333/71049.ts
AOD 354 HD,http://mxu03.wanicelife.com:8880/live/29us020301/asdfr2333/71050.ts
AOD 355 HD,http://mxu03.wanicelife.com:8880/live/29us020301/asdfr2333/71051.ts
KBS World HD,http://mxu03.wanicelife.com:8880/live/29us020301/asdfr2333/71052.ts
ONE HD,http://mxu03.wanicelife.com:8880/live/29us020301/asdfr2333/71053.ts
Oh!K HD,http://mxu03.wanicelife.com:8880/live/29us020301/asdfr2333/71054.ts
TVN HD,http://mxu03.wanicelife.com:8880/live/29us020301/asdfr2333/71055.ts
Hits Movies HD,http://mxu03.wanicelife.com:8880/live/29us020301/asdfr2333/71056.ts
HBO Hits,http://mxu03.wanicelife.com:8880/live/29us020301/asdfr2333/71057.ts
Cinemax HD,http://mxu03.wanicelife.com:8880/live/29us020301/asdfr2333/71058.ts
TVN Movies,http://mxu03.wanicelife.com:8880/live/29us020301/asdfr2333/71059.ts
OKEY TV,http://mxu03.wanicelife.com:8880/live/29us020301/asdfr2333/71060.ts
Moonbug Kids,http://mxu03.wanicelife.com:8880/live/29us020301/asdfr2333/71061.ts
AL JAZEERA HD,http://mxu03.wanicelife.com:8880/live/29us020301/asdfr2333/71063.ts
SKY NEWS HD,http://mxu03.wanicelife.com:8880/live/29us020301/asdfr2333/71064.ts
CNA HD,http://mxu03.wanicelife.com:8880/live/29us020301/asdfr2333/71065.ts
CNBC,http://mxu03.wanicelife.com:8880/live/29us020301/asdfr2333/71066.ts
Bloomberg TV,http://mxu03.wanicelife.com:8880/live/29us020301/asdfr2333/71067.ts
ABC AUSTRALIA,http://mxu03.wanicelife.com:8880/live/29us020301/asdfr2333/71068.ts
8TV,http://mxu03.wanicelife.com:8880/live/29us020301/asdfr2333/71069.ts
Discovery HD,http://mxu03.wanicelife.com:8880/live/29us020301/asdfr2333/71071.ts
DISCOVERY ASIA,http://mxu03.wanicelife.com:8880/live/29us020301/asdfr2333/71072.ts
Discovery Science,http://mxu03.wanicelife.com:8880/live/29us020301/asdfr2333/71073.ts
HISTORY HD,http://mxu03.wanicelife.com:8880/live/29us020301/asdfr2333/71074.ts
ANIMAL PLANET HD,http://mxu03.wanicelife.com:8880/live/29us020301/asdfr2333/71075.ts
TUTOR TV UPSR,http://mxu03.wanicelife.com:8880/live/29us020301/asdfr2333/71076.ts
TUTOR TV SMK,http://mxu03.wanicelife.com:8880/live/29us020301/asdfr2333/71078.ts
ASTRO TVIQ,http://mxu03.wanicelife.com:8880/live/29us020301/asdfr2333/71079.ts
ASTRO Ceria,http://mxu03.wanicelife.com:8880/live/29us020301/asdfr2333/71080.ts
Cartoon Network,http://mxu03.wanicelife.com:8880/live/29us020301/asdfr2333/71084.ts
NICKELODEON HD,http://mxu03.wanicelife.com:8880/live/29us020301/asdfr2333/71085.ts
NICK JR,http://mxu03.wanicelife.com:8880/live/29us020301/asdfr2333/71086.ts
AXN HD,http://mxu03.wanicelife.com:8880/live/29us020301/asdfr2333/71087.ts
Phoenix,http://mxu03.wanicelife.com:8880/live/29us020301/asdfr2333/71088.ts
HITS HD,http://mxu03.wanicelife.com:8880/live/29us020301/asdfr2333/71089.ts
TLC HD,http://mxu03.wanicelife.com:8880/live/29us020301/asdfr2333/71090.ts
FOOD NTWK HD,http://mxu03.wanicelife.com:8880/live/29us020301/asdfr2333/71091.ts
AFN HD,http://mxu03.wanicelife.com:8880/live/29us020301/asdfr2333/71092.ts
WARNER TV,http://mxu03.wanicelife.com:8880/live/29us020301/asdfr2333/71094.ts
Crime Investigation,http://mxu03.wanicelife.com:8880/live/29us020301/asdfr2333/71095.ts
HGTV HD,http://mxu03.wanicelife.com:8880/live/29us020301/asdfr2333/71096.ts
DMAX HD,http://mxu03.wanicelife.com:8880/live/29us020301/asdfr2333/71097.ts
COMEDY CENTRAL,http://mxu03.wanicelife.com:8880/live/29us020301/asdfr2333/71098.ts
MTV,http://mxu03.wanicelife.com:8880/live/29us020301/asdfr2333/71099.ts
ANIMAX,http://mxu03.wanicelife.com:8880/live/29us020301/asdfr2333/71100.ts
eGG Network,http://mxu03.wanicelife.com:8880/live/29us020301/asdfr2333/71101.ts
beIN SPORTS,http://mxu03.wanicelife.com:8880/live/29us020301/asdfr2333/71104.ts
Astro Premier 2,http://mxu03.wanicelife.com:8880/live/29us020301/asdfr2333/71105.ts
EUROSPORT HD,http://mxu03.wanicelife.com:8880/live/29us020301/asdfr2333/71106.ts
GOLF CHANNEL HD,http://mxu03.wanicelife.com:8880/live/29us020301/asdfr2333/71107.ts
ASTRO Rugby Pass,http://mxu03.wanicelife.com:8880/live/29us020301/asdfr2333/71108.ts
ASTRO Cricket,http://mxu03.wanicelife.com:8880/live/29us020301/asdfr2333/71109.ts
KPLUS HD,http://mxu03.wanicelife.com:8880/live/29us020301/asdfr2333/71111.ts
DW HD,http://mxu03.wanicelife.com:8880/live/29us020301/asdfr2333/71112.ts
FRANCE24 HD,http://mxu03.wanicelife.com:8880/live/29us020301/asdfr2333/71113.ts
TA-DAA,http://mxu03.wanicelife.com:8880/live/29us020301/asdfr2333/71118.ts
BBC Earth HD,http://mxu03.wanicelife.com:8880/live/29us020301/asdfr2333/71119.ts
BBC Lifestyle,http://mxu03.wanicelife.com:8880/live/29us020301/asdfr2333/71120.ts
BBC World News,http://mxu03.wanicelife.com:8880/live/29us020301/asdfr2333/71122.ts
Boomerang HD,http://mxu03.wanicelife.com:8880/live/29us020301/asdfr2333/71123.ts
Paramount Channel,http://mxu03.wanicelife.com:8880/live/29us020301/asdfr2333/71135.ts
Luxe TV,http://mxu03.wanicelife.com:8880/live/29us020301/asdfr2333/71137.ts
SCM,http://mxu03.wanicelife.com:8880/live/29us020301/asdfr2333/71138.ts
SETi Chinese,http://mxu03.wanicelife.com:8880/live/29us020301/asdfr2333/71139.ts
ASTRO Citra HD,http://mxu03.wanicelife.com:8880/live/29us020301/asdfr2333/71146.ts
SPOTV,http://mxu03.wanicelife.com:8880/live/29us020301/asdfr2333/71147.ts
TVS,http://mxu03.wanicelife.com:8880/live/29us020301/asdfr2333/71148.ts
Awesome TV,http://mxu03.wanicelife.com:8880/live/29us020301/asdfr2333/71149.ts
Kix HD,http://mxu03.wanicelife.com:8880/live/29us020301/asdfr2333/1716.ts
